{
 "add_total_row": 0, 
 "apply_user_permissions": 1, 
 "creation": "2018-02-21 00:07:12.929619", 
 "disabled": 0, 
 "docstatus": 0, 
 "doctype": "Report", 
 "idx": 0, 
 "is_standard": "Yes", 
 "letter_head": "Logo", 
 "modified": "2018-02-21 00:07:12.929619", 
 "modified_by": "Administrator", 
 "module": "Nhmis", 
 "name": "HEALTH FACILITY GMP DAILY REGISTER", 
 "owner": "Administrator", 
 "ref_doctype": "Nutrition and Growth Planning", 
 "report_name": "HEALTH FACILITY GMP DAILY REGISTER", 
 "report_type": "Script Report", 
 "roles": [
  {
   "role": "System Manager"
  }, 
  {
   "role": "Healthcare Administrator"
  }, 
  {
   "role": "Patient"
  }
 ]
}